
{
    "startHour":"9",
    "endHour":"10",
    "courses":[
        {
            "subject":"CSE",
            "semester":"Fall",
            "title":"Computer Science III",
            "instrucName":"Richard McKenna",
            "instrucHome":"www.no.com",
            "number":"219",
            "year":"2017"
        }
    ],
    "SitePages":[
        {
            "use":true,
            "title":"Home",
            "fileName":"index.html",
            "script":"HomeBuilder.js"
        },
        {
            "use":true,
            "title":"Home",
            "fileName":"index.html",
            "script":"HomeBuilder.js"
        }
    ],
    "undergrad_tas":[
        {
            "name":"Jane Doe",
            "email":"jane.doe@yahoo.com",
            "undergrad":true
        },
        {
            "name":"Joe Shmo",
            "email":"joe.shmo@yale.com",
            "undergrad":false
        }
    ],
    "officeHours":[
        {
            "day":"MONDAY",
            "time":"9_00am",
            "name":"Jane Doe"
        },
        {
            "day":"TUESDAY",
            "time":"9_00am",
            "name":"Jane Doe"
        },
        {
            "day":"WEDNESDAY",
            "time":"9_00am",
            "name":"Joe Shmo"
        },
        {
            "day":"THURSDAY",
            "time":"9_00am",
            "name":"Joe Shmo"
        },
        {
            "day":"FRIDAY",
            "time":"9_00am",
            "name":"Joe Shmo"
        },
        {
            "day":"MONDAY",
            "time":"9_30am",
            "name":"Jane Doe"
        },
        {
            "day":"TUESDAY",
            "time":"9_30am",
            "name":"Jane Doe"
        },
        {
            "day":"WEDNESDAY",
            "time":"9_30am",
            "name":"Joe Shmo"
        },
        {
            "day":"THURSDAY",
            "time":"9_30am",
            "name":"Joe Shmo"
        },
        {
            "day":"FRIDAY",
            "time":"9_30am",
            "name":"Joe Shmo"
        }
    ],
    "recitations":[
        {
            "section":"R02",
            "instructor":"McKenna",
            "dayTime":"Wed 3:30pm-4:23pm",
            "location":"Old CS 2114",
            "ta1":"Yo",
            "ta2":"Joe"
        },
        {
            "section":"R05",
            "instructor":"Banerjee",
            "dayTime":"Tues 5:30pm-6:23pm",
            "location":"Old CS 2114",
            "ta1":"",
            "ta2":""
        }
    ],
    "schedules":[
        {
            "type":"Holiday",
            "date":"2/9/2017",
            "title":"SNOW DAY",
            "topic":"CSE",
            "time":"5:00",
            "link":"www.hello.com",
            "criteria":"criteria1"
        },
        {
            "type":"Lecture",
            "date":"3/15/2017",
            "title":"Lecture 3",
            "topic":"Math",
            "time":"8:00",
            "link":"www.goodbye.com",
            "criteria":"criteria2"
        }
    ],
    "teams":[
        {
            "name":"Atomic Comics",
            "color":"552211",
            "textColor":"ffffff",
            "link":"http://atomiccomic.com"
        }
    ],
    "students":[
        {
            "fName":"Beau",
            "lName":"Brumell",
            "team":"Atomic Comics",
            "role":"Lead Designer"
        }
    ]
}